Spatial data science with R
…
nc2%>%st_agr()

##     BIR74     SID74      NAME 
## aggregate aggregate  identity 
## Levels: constant aggregate identity

nc

## Simple feature collection with 100 features and 14 fields
## geometry type:  MULTIPOLYGON
## dimension:      XY
## bbox:           xmin: 123829 ymin: 14744.69 xmax: 930521.8 ymax: 318259.9
## epsg (SRID):    32119
## proj4string:    +proj=lcc +lat_1=36.16666666666666 +lat_2=34.33333333333334 +lat_0=33.75 +lon_0=-79 +x_0=609601.22 +y_0=0 +ellps=GRS80 +towgs84=0,0,0,0,0,0,0 +units=m +no_defs
## # A tibble: 100 x 15
##     AREA PERIMETER CNTY_ CNTY_ID NAME  FIPS  FIPSNO CRESS_ID BIR74 SID74
##    <dbl>     <dbl> <dbl>   <dbl> <chr> <chr>  <dbl>    <int> <dbl> <dbl>
##  1 0.114      1.44  1825    1825 Ashe  37009  37009        5  1091     1
##  2 0.061      1.23  1827    1827 Alle~ 37005  37005        3   487     0
##  3 0.143      1.63  1828    1828 Surry 37171  37171       86  3188     5
##  4 0.07       2.97  1831    1831 Curr~ 37053  37053       27   508     1
##  5 0.153      2.21  1832    1832 Nort~ 37131  37131       66  1421     9
##  6 0.097      1.67  1833    1833 Hert~ 37091  37091       46  1452     7
##  7 0.062      1.55  1834    1834 Camd~ 37029  37029       15   286     0
##  8 0.091      1.28  1835    1835 Gates 37073  37073       37   420     0
##  9 0.118      1.42  1836    1836 Warr~ 37185  37185       93   968     4
## 10 0.124      1.43  1837    1837 Stok~ 37169  37169       85  1612     1
## # ... with 90 more rows, and 5 more variables: NWBIR74 <dbl>, BIR79 <dbl>,
## #   SID79 <dbl>, NWBIR79 <dbl>, geom <MULTIPOLYGON [m]>

nc$State = "North Carolina"
nc

## Simple feature collection with 100 features and 15 fields
## geometry type:  MULTIPOLYGON
## dimension:      XY
## bbox:           xmin: 123829 ymin: 14744.69 xmax: 930521.8 ymax: 318259.9
## epsg (SRID):    32119
## proj4string:    +proj=lcc +lat_1=36.16666666666666 +lat_2=34.33333333333334 +lat_0=33.75 +lon_0=-79 +x_0=609601.22 +y_0=0 +ellps=GRS80 +towgs84=0,0,0,0,0,0,0 +units=m +no_defs
## # A tibble: 100 x 16
##     AREA PERIMETER CNTY_ CNTY_ID NAME  FIPS  FIPSNO CRESS_ID BIR74 SID74
##    <dbl>     <dbl> <dbl>   <dbl> <chr> <chr>  <dbl>    <int> <dbl> <dbl>
##  1 0.114      1.44  1825    1825 Ashe  37009  37009        5  1091     1
##  2 0.061      1.23  1827    1827 Alle~ 37005  37005        3   487     0
##  3 0.143      1.63  1828    1828 Surry 37171  37171       86  3188     5
##  4 0.07       2.97  1831    1831 Curr~ 37053  37053       27   508     1
##  5 0.153      2.21  1832    1832 Nort~ 37131  37131       66  1421     9
##  6 0.097      1.67  1833    1833 Hert~ 37091  37091       46  1452     7
##  7 0.062      1.55  1834    1834 Camd~ 37029  37029       15   286     0
##  8 0.091      1.28  1835    1835 Gates 37073  37073       37   420     0
##  9 0.118      1.42  1836    1836 Warr~ 37185  37185       93   968     4
## 10 0.124      1.43  1837    1837 Stok~ 37169  37169       85  1612     1
## # ... with 90 more rows, and 6 more variables: NWBIR74 <dbl>, BIR79 <dbl>,
## #   SID79 <dbl>, NWBIR79 <dbl>, geom <MULTIPOLYGON [m]>, State <chr>
…
Exercise 3

Use st_area to add a variable with name area to nc. Compare the area and AREA variables in the nc dataset. What are the units of AREA? Are the two linearly related? If there are discrepancies, what could be the cause?

nc$area=st_area(nc)
nc%>%select(NAME, AREA,area)

## Simple feature collection with 100 features and 3 fields
## geometry type:  MULTIPOLYGON
## dimension:      XY
## bbox:           xmin: 123829 ymin: 14744.69 xmax: 930521.8 ymax: 318259.9
## epsg (SRID):    32119
## proj4string:    +proj=lcc +lat_1=36.16666666666666 +lat_2=34.33333333333334 +lat_0=33.75 +lon_0=-79 +x_0=609601.22 +y_0=0 +ellps=GRS80 +towgs84=0,0,0,0,0,0,0 +units=m +no_defs
## # A tibble: 100 x 4
##    NAME      AREA area                                                 geom
##    <chr>    <dbl> <S3: unit>                             <MULTIPOLYGON [m]>
##  1 Ashe     0.114 113759816~ (((387344.8 278387.2, 381334.2 282773.7, 3794~
##  2 Allegha~ 0.061  61120784~ (((408601.8 292424.5, 408565.1 293985.3, 4066~
##  3 Surry    0.143 142374317~ (((478717.1 277490.3, 476935.7 278867.1, 4715~
##  4 Curritu~ 0.07   69467210~ (((878193.9 289128.3, 877381.5 291117.1, 8759~
##  5 Northam~ 0.153 152099621~ (((769835.3 277796.1, 768364.4 274841.8, 7626~
##  6 Hertford 0.097  96785742~ (((812328 277876.4, 791158.2 277011.9, 789882~
##  7 Camden   0.062  61605187~ (((878193.9 289128.3, 883270.9 275314.1, 8811~
##  8 Gates    0.091  90381791~ (((828444.6 290095.5, 824767.5 287166, 820818~
##  9 Warren   0.118 117952748~ (((671747.1 278687.7, 674043.1 282237.4, 6704~
## 10 Stokes   0.124 123299616~ (((517436.7 277857.7, 479040.3 279098.1, 4811~
## # ... with 90 more rows
…
